-------------------------------------------------------------------------------
Test set: bg.sirma.jira.client.api.ScreensApiTest
-------------------------------------------------------------------------------
Tests run: 1, Failures: 0, Errors: 0, Skipped: 1, Time elapsed: 0 sec
